Intro to Data Wrangling, Exploration, and Analysis with R
…
If you had a few extra rows of information that you didn't want to import as part of your data frame, you can easily skip those:

```r
# read CSV into R
csv_df <- read_csv("./data/weather_data.csv", skip = 3) # skips the first 3 rows
 
# look at the object
csv_df # see how more rows are printed out when we didn't use the head() command?
```

```
## # A tibble: 250 × 8
##    `11/30/18` `Kilns On` Nov   `1.15185662` `314.1624506` `286.879566`
##    <chr>      <chr>      <chr>        <dbl>         <dbl>        <dbl>
##  1 12/1/18    Kilns On   Dec           1.29          341.         287.
##  2 12/2/18    Kilns On   Dec           1.33          326.         287.
##  3 12/3/18    Kilns On   Dec           1.75          348.         287.
##  4 12/4/18    Kilns On   Dec           1.95          319.         288.
##  5 12/5/18    Kilns On   Dec           1.98          318.         288.
##  6 12/6/18    Kilns On   Dec           1.84          307.         287.
##  7 12/7/18    Kilns On   Dec           1.76          322.         287.
##  8 12/8/18    Kilns On   Dec           2.25          325.         286.
##  9 12/9/18    Kilns On   Dec           1.79          332.         287.
## 10 12/10/18   Kilns On   Dec           1.59          349.         286.
## # … with 240 more rows, and 2 more variables: `293.8420586` <dbl>,
## #   `1.44E-06` <dbl>
```
…
You can filter based on multiple criteria using the or ("|") operator.

```r
wdi %>% 
# notice this time I didn't assign it to a new object? this won't be saved in the environment, only printed out
    filter(
        country_name == "India" | country_name =="Bangladesh"
    )
```

```
## # A tibble: 22 × 16
##    country_name country_code series_name   series_code x2010_yr2010 x2011_yr2011
##    <fct>        <chr>        <chr>         <chr>              <dbl>        <dbl>
##  1 Bangladesh   BGD          Access to el… EG.ELC.ACC…        55.3         59.6 
##  2 Bangladesh   BGD          Educational … SE.SEC.CUA…        NA           29.6 
##  3 Bangladesh   BGD          Educational … SE.SEC.CUA…        NA           41.1 
##  4 Bangladesh   BGD          Poverty gap … SI.POV.GAPS         3.5         NA   
##  5 Bangladesh   BGD          Incidence of… SH.MLR.INC…         4.37         3.95
##  6 Bangladesh   BGD          Individuals … IT.NET.USE…         3.7          4.5 
##  7 Bangladesh   BGD          Labor force … SL.TLF.CAC…        35.5         NA   
##  8 Bangladesh   BGD          Labor force … SL.TLF.CAC…        81.6         NA   
##  9 Bangladesh   BGD          Prevalence o… SN.ITK.DEF…        15.2         15.7 
## 10 Bangladesh   BGD          Military exp… MS.MIL.XPN…         1.32         1.36
## # … with 12 more rows, and 10 more variables: x2012_yr2012 <dbl>,
## #   x2013_yr2013 <dbl>, x2014_yr2014 <dbl>, x2015_yr2015 <dbl>,
## #   x2016_yr2016 <dbl>, x2017_yr2017 <dbl>, x2018_yr2018 <dbl>,
## #   x2019_yr2019 <dbl>, x2020_yr2020 <dbl>, x2021_yr2021 <dbl>
```
…
`filter()` will subset data frames by row (ie. if you observations meet a certain condition), `select()` is what you use when you want to... select certain columns. You can also use `select()` to reorder columns. For example, maybe we don't want to keep a country name AND a country code variable in this data set (or a series name AND a series code).

Here I'm selecting `country_name`, `series_name`, and all the variables that start with "x" (using that same "selection tool" we saw before).

```r
wdi %>%
    select(country_name, series_name, starts_with("x"))
```

```
## # A tibble: 2,387 × 14
##    country_name series_name  x2010_yr2010 x2011_yr2011 x2012_yr2012 x2013_yr2013
##    <fct>        <chr>               <dbl>        <dbl>        <dbl>        <dbl>
##  1 Afghanistan  Access to e…        42.7         43.2         69.1         68.3 
##  2 Afghanistan  Educational…        NA           NA           NA           NA   
##  3 Afghanistan  Educational…        NA           NA           NA           NA   
##  4 Afghanistan  Poverty gap…        NA           NA           NA           NA   
##  5 Afghanistan  Incidence o…        13.0         15.6          9.19        11.2 
##  6 Afghanistan  Individuals…         4            5            5.45         5.9 
##  7 Afghanistan  Labor force…        NA           NA           16.0         NA   
##  8 Afghanistan  Labor force…        NA           NA           77.1         NA   
##  9 Afghanistan  Prevalence …        23.7         24.7         28.2         26.3 
## 10 Afghanistan  Military ex…         1.95         1.82         1.18         1.08
## # … with 2,377 more rows, and 8 more variables: x2014_yr2014 <dbl>,
## #   x2015_yr2015 <dbl>, x2016_yr2016 <dbl>, x2017_yr2017 <dbl>,
## #   x2018_yr2018 <dbl>, x2019_yr2019 <dbl>, x2020_yr2020 <dbl>,
## #   x2021_yr2021 <dbl>
```
---

You can also do the "negative" of select and say you don't want certain variables:

```r
wdi %>%
    select(-c(country_code, series_code))
```

```
## # A tibble: 2,387 × 14
##    country_name series_name  x2010_yr2010 x2011_yr2011 x2012_yr2012 x2013_yr2013
##    <fct>        <chr>               <dbl>        <dbl>        <dbl>        <dbl>
##  1 Afghanistan  Access to e…        42.7         43.2         69.1         68.3 
##  2 Afghanistan  Educational…        NA           NA           NA           NA   
##  3 Afghanistan  Educational…        NA           NA           NA           NA   
##  4 Afghanistan  Poverty gap…        NA           NA           NA           NA   
##  5 Afghanistan  Incidence o…        13.0         15.6          9.19        11.2 
##  6 Afghanistan  Individuals…         4            5            5.45         5.9 
##  7 Afghanistan  Labor force…        NA           NA           16.0         NA   
##  8 Afghanistan  Labor force…        NA           NA           77.1         NA   
##  9 Afghanistan  Prevalence …        23.7         24.7         28.2         26.3 
## 10 Afghanistan  Military ex…         1.95         1.82         1.18         1.08
## # … with 2,377 more rows, and 8 more variables: x2014_yr2014 <dbl>,
## #   x2015_yr2015 <dbl>, x2016_yr2016 <dbl>, x2017_yr2017 <dbl>,
## #   x2018_yr2018 <dbl>, x2019_yr2019 <dbl>, x2020_yr2020 <dbl>,
## #   x2021_yr2021 <dbl>
```
…
```r
wdi %>% 
    mutate(
        south_asia = country_name %in% c("Afghanistan", "Bangladesh","Bhutan",
                                        "India", "Maldives", "Nepal", 
                                        "Pakistan", "Sri Lanka")
    ) %>%
    filter(
        south_asia # by default R takes the TRUE cases
    ) %>%
    select(country_name, series_name, starts_with("x"))
```

```
## # A tibble: 88 × 14
##    country_name series_name  x2010_yr2010 x2011_yr2011 x2012_yr2012 x2013_yr2013
##    <fct>        <chr>               <dbl>        <dbl>        <dbl>        <dbl>
##  1 Afghanistan  Access to e…        42.7         43.2         69.1         68.3 
##  2 Afghanistan  Educational…        NA           NA           NA           NA   
##  3 Afghanistan  Educational…        NA           NA           NA           NA   
##  4 Afghanistan  Poverty gap…        NA           NA           NA           NA   
##  5 Afghanistan  Incidence o…        13.0         15.6          9.19        11.2 
##  6 Afghanistan  Individuals…         4            5            5.45         5.9 
##  7 Afghanistan  Labor force…        NA           NA           16.0         NA   
##  8 Afghanistan  Labor force…        NA           NA           77.1         NA   
##  9 Afghanistan  Prevalence …        23.7         24.7         28.2         26.3 
## 10 Afghanistan  Military ex…         1.95         1.82         1.18         1.08
## # … with 78 more rows, and 8 more variables: x2014_yr2014 <dbl>,
## #   x2015_yr2015 <dbl>, x2016_yr2016 <dbl>, x2017_yr2017 <dbl>,
## #   x2018_yr2018 <dbl>, x2019_yr2019 <dbl>, x2020_yr2020 <dbl>,
## #   x2021_yr2021 <dbl>
```
…
To rename variables in your dataset, you can use the aptly named `rename()` command. The syntax is `new_name = old_name`, which differs from other programs. You can do multiple variables within the same command -- they just need to be separated by a comma.

```r
wdi %>%
    select(-c(country_code, series_code)) %>%
    rename(
        country = country_name,
        series = series_name
    )
```

```
## # A tibble: 2,387 × 14
##    country     series        x2010_yr2010 x2011_yr2011 x2012_yr2012 x2013_yr2013
##    <fct>       <chr>                <dbl>        <dbl>        <dbl>        <dbl>
##  1 Afghanistan Access to el…        42.7         43.2         69.1         68.3 
##  2 Afghanistan Educational …        NA           NA           NA           NA   
##  3 Afghanistan Educational …        NA           NA           NA           NA   
##  4 Afghanistan Poverty gap …        NA           NA           NA           NA   
##  5 Afghanistan Incidence of…        13.0         15.6          9.19        11.2 
##  6 Afghanistan Individuals …         4            5            5.45         5.9 
##  7 Afghanistan Labor force …        NA           NA           16.0         NA   
##  8 Afghanistan Labor force …        NA           NA           77.1         NA   
##  9 Afghanistan Prevalence o…        23.7         24.7         28.2         26.3 
## 10 Afghanistan Military exp…         1.95         1.82         1.18         1.08
## # … with 2,377 more rows, and 8 more variables: x2014_yr2014 <dbl>,
## #   x2015_yr2015 <dbl>, x2016_yr2016 <dbl>, x2017_yr2017 <dbl>,
## #   x2018_yr2018 <dbl>, x2019_yr2019 <dbl>, x2020_yr2020 <dbl>,
## #   x2021_yr2021 <dbl>
```
…
--

To get summary statistics, you'll need to combine it with a call to `summarise()`.
---

Let’s start with simple counting. How many observations do we have per country? (Hint: you can accomplish the same using `dplyr::tally()`). You can see we have 12 observations per country -- that's because we have a separate row for every year and there are 12 years of data (2010 - 2021).

```r
wdi_df %>%
  group_by(country) %>%
  summarise(n = n())
```

```
## # A tibble: 217 × 2
##    country                 n
##    <fct>               <int>
##  1 Afghanistan            12
##  2 Albania                12
##  3 Algeria                12
##  4 American Samoa         12
##  5 Andorra                12
##  6 Angola                 12
##  7 Antigua and Barbuda    12
##  8 Argentina              12
##  9 Armenia                12
## 10 Aruba                  12
## # … with 207 more rows
```
…
What if we wanted to calculate the mean GDP per capita for each country over the 12 years of data? We can simply add more operations within the call to `summarise()`.

```r
wdi_df %>%
  group_by(country) %>%
  summarise(
      n = n(),
      gdp_avg = mean(gdppc))
```

```
## # A tibble: 217 × 3
##    country                 n gdp_avg
##    <fct>               <int>   <dbl>
##  1 Afghanistan            12      NA
##  2 Albania                12      NA
##  3 Algeria                12      NA
##  4 American Samoa         12      NA
##  5 Andorra                12      NA
##  6 Angola                 12      NA
##  7 Antigua and Barbuda    12      NA
##  8 Argentina              12      NA
##  9 Armenia                12      NA
## 10 Aruba                  12      NA
## # … with 207 more rows
```
…
When calculating many different statistics, you need to be aware of missing data and decide how to handle them. R can't calculate a mean when some of the values are missing unless you tell R to ignore them.

```r
wdi_df %>%
  group_by(country) %>%
  summarise(
      n = n(),
      gdp_avg = mean(gdppc, na.rm = TRUE)) 
```

```
## # A tibble: 217 × 3
##    country                 n gdp_avg
##    <fct>               <int>   <dbl>
##  1 Afghanistan            12    548.
##  2 Albania                12   4026.
##  3 Algeria                12   4067.
##  4 American Samoa         12  11745.
##  5 Andorra                12  35802.
##  6 Angola                 12   3885.
##  7 Antigua and Barbuda    12  14495.
##  8 Argentina              12  13381.
##  9 Armenia                12   3616.
## 10 Aruba                  12  27411.
## # … with 207 more rows
```
---

The functions you’ll apply within summarize() include classical statistical summaries, like `mean()`, `median()`, `var()`, `sd()`, `IQR()`, `min()`, and `max()`. `dplyr` also includes short-cuts for working across multiple variables, for example you can use `summarise_at()` the same summary function(s) to multiple variables.  Let’s compute the average and median of GDP per capita and % electricity access by country.

```r
wdi_df %>%
  group_by(country) %>%
  summarise_at(
      vars(gdppc, electricity),
      list(~mean(., na.rm = TRUE), ~median(., na.rm = TRUE))) 
```

```
## # A tibble: 217 × 5
##    country             gdppc_mean electricity_mean gdppc_median electricity_med…
##    <fct>                    <dbl>            <dbl>        <dbl>            <dbl>
##  1 Afghanistan               548.             79.2         553.             89.5
##  2 Albania                  4026.            100.         3953.            100  
##  3 Algeria                  4067.             99.3        4112.             99.2
##  4 American Samoa          11745.            NaN         11812.             NA  
##  5 Andorra                 35802.            100         34957.            100  
##  6 Angola                   3885.             40.1        3980.             41.8
##  7 Antigua and Barbuda     14495.             99.4       13987.            100  
##  8 Argentina               13381.             99.6       13568.             99.8
##  9 Armenia                  3616.             99.8        3601.             99.8
## 10 Aruba                   27411.             99.4       27051.            100  
## # … with 207 more rows
```
…
But note how the data frame that was returned has fewer rows -- 217 or 1 for each country. When you use `summarise()` it changes the structure of your data, if you wanted to calculate the mean GDP per capita for each country and add it as a variable to the original data frame with yearly observations for each country, you would use a `mutate()`.

```r
wdi_df %>%
  group_by(country) %>%
  mutate(
      n = n(),
      gdp_avg = mean(gdppc, na.rm = TRUE)) %>%
    select(country, year, gdppc, n, gdp_avg)
```

```
## # A tibble: 2,604 × 5
## # Groups:   country [217]
##    country      year gdppc     n gdp_avg
##    <fct>       <int> <dbl> <int>   <dbl>
##  1 Afghanistan  2010  526.    12    548.
##  2 Afghanistan  2011  512.    12    548.
##  3 Afghanistan  2012  558.    12    548.
##  4 Afghanistan  2013  569.    12    548.
##  5 Afghanistan  2014  565.    12    548.
##  6 Afghanistan  2015  556.    12    548.
##  7 Afghanistan  2016  553.    12    548.
##  8 Afghanistan  2017  553.    12    548.
##  9 Afghanistan  2018  547.    12    548.
## 10 Afghanistan  2019  555.    12    548.
## # … with 2,594 more rows
```
…
```
##            > rows total       49,476
```

???
Explain all the tidylog output
---

Now, let's look at the output:

```
## # A tibble: 49,476 × 15
##    country   year.x electricity edu_female edu_male poverty_gap malaria internet
##    <chr>      <int>       <dbl>      <dbl>    <dbl>       <dbl>   <dbl>    <dbl>
##  1 Afghanis…   2010        42.7         NA       NA          NA    13.0        4
##  2 Afghanis…   2010        42.7         NA       NA          NA    13.0        4
##  3 Afghanis…   2010        42.7         NA       NA          NA    13.0        4
##  4 Afghanis…   2010        42.7         NA       NA          NA    13.0        4
##  5 Afghanis…   2010        42.7         NA       NA          NA    13.0        4
##  6 Afghanis…   2010        42.7         NA       NA          NA    13.0        4
##  7 Afghanis…   2010        42.7         NA       NA          NA    13.0        4
##  8 Afghanis…   2010        42.7         NA       NA          NA    13.0        4
##  9 Afghanis…   2010        42.7         NA       NA          NA    13.0        4
## 10 Afghanis…   2010        42.7         NA       NA          NA    13.0        4
## # … with 49,466 more rows, and 7 more variables: lfp_female <dbl>,
## #   lfp_male <dbl>, underourished <dbl>, military <dbl>, gdppc <dbl>,
## #   year.y <int>, population <dbl>
```
…
```
##            >                 =======
```

```
##            > rows total       2,604
```
---

Now, let's look at the output:

```
## # A tibble: 2,604 × 14
##    country   year population electricity edu_female edu_male poverty_gap malaria
##    <chr>    <int>      <dbl>       <dbl>      <dbl>    <dbl>       <dbl>   <dbl>
##  1 Afghani…  2010   29185511        42.7         NA       NA          NA   13.0 
##  2 Afghani…  2011   30117411        43.2         NA       NA          NA   15.6 
##  3 Afghani…  2012   31161378        69.1         NA       NA          NA    9.19
##  4 Afghani…  2013   32269592        68.3         NA       NA          NA   11.2 
##  5 Afghani…  2014   33370804        89.5         NA       NA          NA   12.4 
##  6 Afghani…  2015   34413603        71.5         NA       NA          NA   13.9 
##  7 Afghani…  2016         NA        97.7         NA       NA          NA   26.9 
##  8 Afghani…  2017         NA        97.7         NA       NA          NA   28.6 
##  9 Afghani…  2018         NA        96.6         NA       NA          NA   22.1 
## 10 Afghani…  2019         NA        97.7         NA       NA          NA   14.1 
## # … with 2,594 more rows, and 6 more variables: internet <dbl>,
## #   lfp_female <dbl>, lfp_male <dbl>, underourished <dbl>, military <dbl>,
## #   gdppc <dbl>
```
…
